ITPthrough,UserID,Password,Borrowers,IntendtoProceedReceived,MethodReceived,SpokeWith,SupportingDocs,Comments
DocuTech,,,,,,,,
LKW,,,,,,,,
Web,Valid,Valid,Single,Checked,Valid,Valid,,
LKW,Valid,Valid,Single,Checked,Valid,Valid,,
Web,,,,,,,,
LKW,Valid,Valid,Single,Checked,Valid,Valid,,
LKW,,,,,,,,
LKW,,,,,,,,
LKW,Valid,Valid,Single,Checked,Valid,Valid,,
LKW,,,,,Valid,,,
LKW,,,,,,Valid,,
LKW,,,,,,,,
LKW,,,,,,,,Valid
LKW,,,Unchecked,,,,,
DocuTech,,,Unchecked,,,,,
LKW,,,,,,,,
LKW,,,,,,,,
LKW,,,,,,,,
LKW,Valid,Valid,Single,Checked,Valid,Valid,,
LKW,Valid,Valid,Single,Checked,Valid,Valid,,
LKW,,,Single,,,,,
LKW,,,,,,,,
LKW,,,,,,,,
LKW,,,,,,,,
Web,,,,,,,,
LKW,,,,,,,,
Web,,,,Checked,,,,
Web,,,,Checked,,,,
Web,,,,,Valid,,,
Web,,,,,,Valid,,
Web,,,,,,,,
Web,,,,,,,,Valid
Web,Valid,Valid,Single,Checked,Valid,Valid,Valid,
LKW,Valid,Valid,Single,Checked,Valid,Valid,,
LKW,,,,,,,,
Web,Valid,Valid,Single,Checked,Valid,Valid,,
Web,Valid,Valid,Single,Checked,Valid,Valid,,
LKW,,,,,,,,
LKW,Valid,Valid,Single,Checked,Valid,Valid,,
Web,Valid,Valid,Single,Checked,Valid,Valid,,
Web,Valid,Valid,Single,Checked,Valid,Valid,,
Web,Valid,Valid,Single,Checked,Valid,Valid,,
